###############################################################################
## This is the buildsystem configuration file
###############################################################################

##
## Build all packages by default...
########################################
##<DEFAULT>##
##</DEFAULT>##

##
## Various packages...
########################################
ap1/unrar
ap1/p7zip
ap1/unix2dos
ap1/screenfetch




##
## Database packages
########################################
ap/sqlite




##
## Experimental Python 3.x support
## Required for media-player-info
########################################
d/python3

##
## Setuptools >= 33.x depends on
## these python packages:
########################################
lpython/python-appdirs
lpython/python-six
lpython/python-packaging
lpython/python-setuptools
lpython/python-parsing
lpython/python-pip
lpython/sip

##
## Required for mesa-git
########################################
lpython/python-MarkupSafe
lpython/python-Mako




##
## Required by various applications
########################################
l/boost

##
## Required for intel-gpu-tools
########################################
l/libunwind

##
## Required for libsoup
########################################
l/brotli




##
## CMake compiler
########################################
d/cmake




##
## meson/ninja build system
########################################
d/meson
d/ninja




##
## Newer gnome-keyring/gcr requires
## updated p11-kit, requires meson
########################################
n/p11-kit




##
## Optional for swig
########################################
d1/lua
##
## Required for hugin, llvm...
########################################
d/swig
##
## The llvm compiler infrastructure
########################################
d/llvm
##
## Required to build sane-backends
########################################
d1/autoconf-archive




##
## The glib2 library
########################################
lgnome/glib2
##
## Optional for various packages,
## requires glib2
########################################
lgnome/vala




##
## XORG Server, Part1
########################################
##
## These buildtools are highly experimental
## and will break your X-Server!
## If you install it then it is recommended
## to use 'xorgsetup' to create a new
## /etc/X11/xorg.conf file
########################################
xorg1/mtdev
xorg1/x11-skel
xorg/util-macros
xorg1/spice-protocol
xorg/xorgproto
xorg/xtrans
xorg/libXau
xorg/libXdmcp
xorg1/xcb-proto
xorg1/libpthread-stubs
xorg1/libxcb
xorg/libX11




##
## DBus requires X-headers and elogind
########################################
a1/elogind
a/dbus
a/dbus-glib
a/dbus-python
##
## Keep introspection up2date
########################################
lgnome/gobject-introspection
##
## Rebuild polkit with elogind support
########################################
l/polkit
##
## Optional for librsvg, requires glib2
## Required for xgettext which is linked
## against libcroco
########################################
l/libcroco
##
## Optional for gvfs, required for
## network-manager-applet
########################################
l/libsecret




##
## Experimental CUPS package
########################################
#ap/cups




##
## XORG Server, Part2
########################################
xorg/mkcomposecache
xorg/libXext
xorg/libdmx
xorg/libfontenc
xorg/libFS
xorg/libICE
xorg/libSM
xorg/libXt
xorg/libXmu
xorg/libXpm
xorg/libXp
xorg/libXaw
xorg/libXaw3d
xorg/libXfixes
xorg/libXcomposite
xorg/libXrender
xorg/libXdamage
xorg/libXcursor
xorg/libXevie
##
## freetype/xcursorgen require libpng
########################################
lgfx/libpng
##
## libwebp requires libpng
########################################
lgfx/libwebp
lgfx/freetype
xorg/libXfont2
xorg/libXfontcache
xorg1/fontconfig
xorg/libXft
xorg/libXi
xorg/libXinerama
xorg/libxkbfile
xorg/libXrandr
xorg/libXpresent
xorg/libXres
xorg/libXScrnSaver
xorg/libXtst
xorg/libXv
xorg/libXvMC
xorg/libXxf86dga
xorg/libXxf86misc
xorg/libXxf86vm
xorg/libxshmfence
xorg/xbitmaps
xorg/appres
xorg/bdftopcf
xorg/beforelight
xorg/bitmap
xorg/editres
xorg/fonttosfnt
xorg/fslsfonts
xorg/fstobdf
xorg/iceauth
xorg/ico
xorg/listres
xorg/luit
xorg/mkfontscale
xorg/oclock
xorg/rgb
xorg/sessreg
xorg/setxkbmap
xorg/showfont
xorg/smproxy
xorg/twm
xorg/viewres
xorg/x11perf
xorg/xauth
xorg/xbiff
xorg/xcalc
xorg/xclipboard
xorg/xclock
xorg/xcmsdb
xorg/xconsole
xorg/xcursorgen
xorg/xdbedizzy
xorg/xditview
xorg/xdm
xorg/xdpyinfo
##
## Required for cairo
########################################
xorg/pixman
##
## Required for newer libdrm
########################################
xorg/libpciaccess
##
## libdrm fail to build if cairo is
## compiled with '--enable-gl'
########################################
xorg1/libdrm
xorg/makedepend
##
## wayland is optional for mesa to build
## the wayland-egl component which is
## optional for KDE5/kwin
########################################
xorg1/wayland
xorg1/wayland-protocols
xorg1/libvdpau
##
## mesa needs libva-headers to build
## the libva driver
########################################
xorg1/libva-core
##
## Required for OpenCL support in mesa
########################################
xorg1/libclc
xorg1/opencl-headers
xorg1/ocl-icd
##
## The Khronos Vulkan-SDK
########################################
xorg1/vulkansdk-glslang
xorg1/vulkansdk-headers
xorg1/vulkansdk-loader
xorg1/vulkansdk-tools
xorg1/vulkansdk-spirv-headers
xorg1/vulkansdk-spirv-tools
xorg1/vulkansdk-validationlayers
##
## Required for mesa
########################################
xorg1/libglvnd
##
## mesa is more stable then mesa-git
########################################
xorg1/mesa
xorg1/mesa-git
##
## libva >= 1.6 depends on wayland and
## requires mesa for glx/egl support
########################################
xorg1/libva
xorg1/libva-utils
xorg1/libva-vdpau-driver
xorg1/intel-vaapi-driver
##
## VDPAU driver with OpenGL backend
########################################
xorg1/libvdpau-va-gl
xorg1/glu
lgfx/fribidi
lgfx/cairo
xorg/xdriinfo
xorg/xedit
xorg/xev
xorg/xeyes
xorg/xf86dga
xorg/xfd
xorg/xfontsel
xorg/xfs
xorg/xfsinfo
xorg/xgamma
xorg/xgc
xorg/xhost
xorg/xinput
xorg/xinit
xorg/xkbcomp
xorg/xkbevd
xorg/xkbprint
xorg/xkbutils
xorg1/libxkbcommon
xorg/xkill
xorg/xload
xorg/xlogo
xorg/xlsatoms
xorg/xlsclients
xorg/xlsfonts
xorg/xmag
xorg/xman
xorg/xmessage
xorg/xmh
xorg/xmodmap
xorg/xmore
xorg/xpr
xorg/xprop
xorg/xrandr
xorg/xrdb
xorg/xrefresh
xorg/xset
xorg/xsetroot
xorg/xsm
xorg/xstdcmap
xorg/xvidtune
xorg/xvinfo
xorg/xwd
xorg/xwininfo
xorg/xwud
xorg1/xcb-util
xorg1/xcb-util-renderutil
xorg1/xcb-util-image
xorg1/xcb-util-keysyms
xorg1/xcb-util-cursor
xorg1/xcb-util-errors
xorg1/xcb-util-wm
xorg/xbacklight
xorg/xcompmgr
xorg/font-util
##
## Required for some KDE5 related
## libraries (kdeclarative)
########################################
xorg1/libepoxy
##
## xaw3d with utf-8/freetype support
########################################
xorg1/libXaw3dXft




##
## XORG Server, Part3
########################################
xorg/xorg-server20




##
## Some more libraries
########################################
##
## Required for newer pango
########################################
lgfx/harfbuzz
lgfx/pango
##
## Create hicolor directory before
## other packages will add icons to it
########################################
themes/hicolor-icon-theme
lgnome/atk
lgnome/at-spi2-core
lgnome/at-spi2-atk
lgnome/gdk-pixbuf2
lgnome/gtk+2
lgnome/gtk+3




##
## XORG Server, Part4
########################################
##
## More XOrg related packages
########################################
xorg/xcursor-themes
xorg/encodings
xorg/xisxwayland

##
## Core XOrg fonts
########################################
xorgfonts/font-adobe-100dpi
xorgfonts/font-adobe-75dpi
xorgfonts/font-adobe-utopia-100dpi
xorgfonts/font-adobe-utopia-75dpi
xorgfonts/font-adobe-utopia-type1
xorgfonts/font-arabic-misc
xorgfonts/font-bh-100dpi
xorgfonts/font-bh-75dpi
xorgfonts/font-bh-lucidatypewriter-100dpi
xorgfonts/font-bh-lucidatypewriter-75dpi
xorgfonts/font-bh-ttf
xorgfonts/font-bh-type1
xorgfonts/font-bitstream-100dpi
xorgfonts/font-bitstream-75dpi
xorgfonts/font-bitstream-speedo
xorgfonts/font-bitstream-type1
xorgfonts/font-cronyx-cyrillic
xorgfonts/font-cursor-misc
xorgfonts/font-daewoo-misc
xorgfonts/font-dec-misc
xorgfonts/font-ibm-type1
xorgfonts/font-isas-misc
xorgfonts/font-jis-misc
xorgfonts/font-micro-misc
xorgfonts/font-misc-cyrillic
xorgfonts/font-misc-ethiopic
xorgfonts/font-misc-meltho
xorgfonts/font-misc-misc
xorgfonts/font-mutt-misc
xorgfonts/font-schumacher-misc
xorgfonts/font-screen-cyrillic
xorgfonts/font-sony-misc
xorgfonts/font-sun-misc
xorgfonts/font-winitzki-cyrillic
xorgfonts/font-xfree86-type1
xorgfonts/font-alias

##
## More fonts
########################################
xorgfonts1/dejavu-fonts-ttf
xorgfonts1/liberation-fonts-ttf
xorgfonts1/urw-core35-fonts-ttf
xorgfonts1/urw-core35-fonts-otf
xorgfonts1/freefont-ttf
xorgfonts1/SourceSansPro-fonts-ttf
xorgfonts1/sjfonts
xorgfonts1/noto-fonts-mono-ttf
xorgfonts1/noto-fonts-sans-ttf
xorgfonts1/noto-fonts-serif-ttf
xorgfonts1/hack-fonts-ttf

##
## Extra dependencies for some drivers
########################################
xorg1/libevdev
xorg1/libinput
xorg1/libwacom

##
## Default input drivers
########################################
xorgdrv1/xf86-input-evdev
xorgdrv1/xf86-input-libinput
xorgdrv1/xf86-input-keyboard
xorgdrv1/xf86-input-mouse
xorgdrv1/xf86-input-synaptics

##
## Some extra input drivers
########################################
xorgdrv2/xf86-input-acecad
xorgdrv2/xf86-input-joystick
xorgdrv2/xf86-input-penmount
xorgdrv2/xf86-input-vmmouse
xorgdrv2/xf86-input-void
xorgdrv2/xf86-input-wacom

##
## Default video drivers
########################################
xorgdrv1/xf86-video-vesa
xorgdrv1/xf86-video-amdgpu
xorgdrv1/xf86-video-ati
xorgdrv1/xf86-video-intel
xorgdrv1/xf86-video-nouveau
xorgdrv1/xf86-video-nv
xorgdrv1/xf86-video-vboxvideo

##
## Some extra video drivers
########################################
xorgdrv2/xf86-video-apm
xorgdrv2/xf86-video-ark
xorgdrv2/xf86-video-ast
xorgdrv2/xf86-video-chips
xorgdrv2/xf86-video-cirrus
xorgdrv2/xf86-video-dummy
xorgdrv2/xf86-video-freedreno
xorgdrv2/xf86-video-glint
xorgdrv2/xf86-video-i128
xorgdrv2/xf86-video-i740
xorgdrv2/xf86-video-mach64
xorgdrv2/xf86-video-mga
xorgdrv2/xf86-video-neomagic
xorgdrv2/xf86-video-omap
xorgdrv2/xf86-video-openchrome
xorgdrv2/xf86-video-qxl
xorgdrv2/xf86-video-r128
xorgdrv2/xf86-video-rendition
xorgdrv2/xf86-video-s3
xorgdrv2/xf86-video-s3virge
xorgdrv2/xf86-video-savage
xorgdrv2/xf86-video-siliconmotion
xorgdrv2/xf86-video-sis
xorgdrv2/xf86-video-sisusb
xorgdrv2/xf86-video-tdfx
xorgdrv2/xf86-video-tga
xorgdrv2/xf86-video-trident
xorgdrv2/xf86-video-tseng
xorgdrv2/xf86-video-v4l
xorgdrv2/xf86-video-vmware
xorgdrv2/xf86-video-voodoo
xorgdrv2/xf86-video-xgi
xorgdrv2/xf86-video-xgixp

##
## Geode is hardware specific for 32bit
########################################
xorgdrv2/xf86-video-geode

##
## More XOrg related packages
########################################
xorg/xorg-cf-files
xorg/imake
xorg/gccmakedep
xorg/lndir
xorg/xkeyboard-config
xorg/xscope
xorg/rendercheck
xorg/transset
xorg1/numlockx
xorg1/xterm
xorg1/radeontool
xorg1/xbindkeys

##
## Intels OpenCL driver for Linux
## Optional for darktable with intel
## based GPUs
########################################
#xorg1/intel-opencl2




##
## GNOME/Glib/GTK+ bindings for C++
########################################
lgnome1/libsigc++
lgnome1/glibmm
lgnome1/cairomm
lgnome1/pangomm
lgnome1/atkmm
lgnome1/gtkmm2
lgnome1/gtkmm3




##
## More basic packages
########################################
xorg1/xdg-user-dirs
xorg1/xdg-user-dirs-gtk
l/startup-notification




##
## XScreensaver
########################################
xap/xscreensaver




##
## Spellchecking libraries
########################################
l1/aspell6-de
l/enchant




##
## Some more libraries
########################################
lgnome/GConf
lgnome/dconf




##
## Extra application requirements
########################################
##
## Required for audacity/hugin
########################################
d1/wxWidgets
##
## Required for xfce4-power-manager and
## powerdevil for suspend/hibernate
########################################
a/upower




##
## intel-gpu-tools needs swig to
## be installad with python3 support
########################################
xorg/igt-gpu-tools




##
## Various required libraries
########################################
##
## Required for gstreamer
########################################
l/orc
##
## Required for libmypaint/GIMP >= 2.10
########################################
l/json-c
##
## Required for darktable
########################################
l/json-glib
##
## Required for rdiff-backup
########################################
l1/librsync
##
## Optional for audacious
########################################
l1/libguess
##
## Required for xfce notes plugin and
## gnome-media
########################################
l1/libunique
##
## Required for inkscape
########################################
l1/double-conversion




##
## Various audio/video/graphic libraries
########################################
lgfx1/libiptcdata
##
## Some extra dependencies for the
## lumincance HDR utility
########################################
lgfx/lcms2
lgfx/LibRaw18-compat
lgfx/LibRaw
##
## libcaca optional for Xine, VLC and
## MPlayer. imlib2 optional for libcaca
########################################
lgfx1/imlib2
lgfx/libcaca
##
## openjpeg1 is optional for ffmpeg
########################################
lgfx/openjpeg1
lgfx/openjpeg2
lmm/libogg
lmm/libvorbis
lmm/libtheora
##
## Needed for supporting mtp protocol
## Slackware's version may be outdated
########################################
lmm/libmtp
##
## Optional for ffmpeg, mplayer, xine
########################################
lmm/speex
lmm/speexdsp
##
## Optional for xmms
########################################
lmm1/libmikmod
##
## Matroska audio compression format
########################################
lmm1/libebml
lmm1/libmatroska
##
## id3lib is required for kid3
########################################
lmm/id3lib
##
## eyeD3 is required for audex
########################################
lmm1/eyeD3
lmm1/libdv
lmm1/x264
##
## libmpcdeck a.k.a. MusePack library
########################################
lmm1/libmpcdec
lmm/lame
lmm1/twolame
lmm1/libfame
lmm1/xvidcore
lmm/a52dec
lmm1/libmpeg2
lmm/libdvdread
lmm1/lsdvd
lmm/libdvdnav
lmm1/libdvbpsi
lmm1/libofa
lmm1/faad2
lmm1/faac
lmm/libvpx
lmm/opus
lmm/opusfile
lmm/liboggz
##
## jack is a recommended dependency for
## for avidemux, OBS and SSR
########################################
lmm1/jack
##
## Optional for audacious to play
## c64 sid files
########################################
lmm1/libsidplayfp




##
## More libraries
########################################
##
## Exiv2 depends on libssh
########################################
l/libssh
##
## Rebuild librsvg since it depends on
## other libs like cairo, gtk+...
########################################
lgfx/librsvg
##
## Create HighContrast directory before
## other packages will add icons to it
## Depends on librsvg
########################################
themes/gnome-themes-extra
lgfx/exiv2
##
## Required for gmic
########################################
lgfx1/graphicsmagick
##
## Required for hugin
########################################
lgfx1/libpano13




##
## Some command-line multi-media tools
########################################
ap/opus-tools
ap/vorbis-tools
ap1/ogmtools
ap1/vorbisgain
##
## Optional for kdenlive, depends on
## graphicsmagick
########################################
ap1/dvdauthor
##
## Required for inkscape
########################################
ap1/potrace
##
## Small and tiny text-only TETRIS clone
########################################
ap1/vitetris




##
## perl extensions
########################################
lperl/perl-libintl
lperl/perl-ExtUtils-Depends
lperl/perl-ExtUtils-PkgConfig
lperl/perl-Glib
lperl/perl-Cairo
lperl/perl-Pango
lperl/perl-Gtk+2
lperl/perl-Gtk+2-Ex-FormFactory
lperl/perl-AnyEvent
lperl/perl-Event-ExecFlow
lperl/perl-Event-RPC

##
## Required for hugin 2014.0.0
########################################
lperl/perl-Image-ExifTool




##
## The GStreamer multimedia
## framework 0.10, part #
########################################
gst0/gstreamer0
gst0/gst-plugins-base0

##
## The GStreamer multimedia
## framework 1.x, part #1
########################################
gst1/gstreamer1
gst1/gst-plugins-base1




##
## More libraries
########################################
lgnome/gsettings-desktop-schemas
lgnome/libcanberra
lgnome/libgnome-keyring
lgnome/gtk-engines
lgnome/glib-networking
lgnome/libsoup
lgnome/gcr
lgnome/gnome-keyring
##
## Required for inkscape
########################################
lgnome/gdl




##<XQT>##
##
## QT5 related packages
########################################
qt5/qt5-base
qt5/qt5-xmlpatterns
qt5/qt5-declarative
qt5/qt5-x11extras
qt5/qt5-wayland
qt5/qt5-tools
qt5/qt5-imageformats
qt5/qt5-svg
qt5/qt5-graphicaleffects
qt5/qt5-multimedia
qt5/qt5-charts
qt5/qt5-3d
qt5/qt5-scxml
qt5/qt5-datavis3d
qt5/qt5-quick3d
qt5/qt5-quickcontrols
qt5/qt5-quickcontrols2
qt5/qt5-quicktimeline
qt5/qt5-connectivity
qt5/qt5-networkauth
qt5/qt5-location
qt5/qt5-lottie
qt5/qt5-virtualkeyboard
qt5/qt5-gamepad
qt5/qt5-translations
qt5/qt5-script
qt5/qt5-sensors
qt5/qt5-speech
qt5/qt5-websockets
qt5/qt5-webchannel
qt5/qt5-webengine
qt5/qt5-webview
##</XQT>##




##
## enblend-enfuse, hugin and mesa-demos
## require FreeGlut
########################################
xorg1/freeglut
##
## RSS-GLX, hugin and mesa-demos
## require GLEW
########################################
xorg1/glew
xorg1/mesa-demos




##
## wayland is a base wayland compositor
########################################
xorg1/weston




##
## Numerical computing tools
########################################
l1/lapack
l1/OpenBLAS
lpython/numpy




##
## GNOME/Glib/GTK+ bindings for Python
########################################
lpython/pycairo
lpython/pygobject3
##
## Depends on Python2... deprecated?
########################################
#lpython/pygobject2
#lpython/pygtk




##
## Discover services through a network
########################################
a1/libdaemon
ap1/xmltoman
a1/avahi




##
## Printer management for KDE
########################################
lpython/pycups
l1/cups-pk-helper
l/system-config-printer




##<XQT1>##
##
## Not part of Qt5 but required for
## various applications.
########################################
xqt5/qt5webkit
##
## QT related packages
########################################
qt/qjson
qt/qca
qt/libdbusmenu-qt
qt/qt-gstreamer
##
## Latest phonon depends on ECM
########################################
k5frameworks/extra-cmake-modules
qt/phonon-qt5
##
## polkit-qt-1 is required for various
## KDE4/5 based applications like PyQt
########################################
qt/polkit-qt-1
##</XQT1>##




##
## More audio/video/graphic libraries
########################################
##
## liblensfun is used by various apps
########################################
lgfx1/liblensfun
lgfx/libgphoto2
##
## Required for gstreamer
########################################
lmm/taglib
lmm/taglib-extras
##
## Optional for kdelibs
########################################
lmm/media-player-info
##
## x265 requires cmake
########################################
lmm1/x265
##
## Required for SuperTux
########################################
lmm/SDL2
lmm/SDL2_image
lmm/SDL2_ttf
lmm/SDL2_gfx
lmm/SDL2_mixer
lmm/SDL2_net
##
## Optional for gst-plugins-bad and
## libtunepimp
########################################
lmm1/libmusicbrainz2
##
## Required for ksdc, gnome-mplayer
########################################
lmm1/libmusicbrainz3
lmm1/libtunepimp
lmm1/libvidstab
lmm/ffmpeg
##
## libquicktime optionally requires ffmpeg
########################################
lmm1/libquicktime
lmm1/mjpegtools
##
## Required for kid3
########################################
lmm1/chromaprint
## 
## OpenAL and FreeALut are required
## for latest blender releases
########################################
lmm/openal-soft
lmm1/freealut
##
## Optional for kdenlive
########################################
lmm1/gavl
lmm1/opencv
lmm1/frei0r-plugins




##
## Required for KDE4/5
########################################
n/gpgme
l/libvncserver
l1/openslp
##
## Optional for krdc
########################################
l1/freerdp
##
## Optional for kstars/luminance
########################################
l1/cfitsio
##
## Required for darktable-git >1.7
########################################
l1/pugixml




##
## The GStreamer multimedia
## framework 0.10, part #2
########################################
gst0/gst-plugins-good0
gst0/gst-plugins-ugly0
gst0/gst-plugins-bad0
gst0/gst-ffmpeg

##
## The GStreamer multimedia
## framework 1.x, part #2
########################################
gst1/gst-plugins-good1
gst1/gst-plugins-ugly1
gst1/gst-plugins-bad1
gst1/gst-libav




##
## poppler can make use of QT5
########################################
lgfx/poppler
lgfx/poppler-data




##
## Scanner backend. Should be recompiled
## if libgphoto2 got updated
## Build depends on poppler-glib
########################################
xap/sane-backends




##
## Optional use of avahi/keyring
########################################
lgnome/gvfs




##
## Editor for dconf/gsettings
########################################
lgnome/dconf-editor




##
## Blender with bundled python 3.x
########################################
xbin32/blender
xbin64/blender_x64




##
## The transcode library
########################################
lmm1/transcode




##<XFCE1>##
##
## XFCE4
########################################
##
## libwnck need to be updated after
## xcb-util got updated or various
## things may break like xfce
########################################
xfcedeps/libwnck
xfce/xfce4-dev-tools
xfce/libxfce4util
xfce/xfconf
xfce/libxfce4ui
xfce/garcon
xfce/exo
xfce/xfce4-panel
xfce/thunar
xfce/xfce4-session
xfce/xfce4-settings
xfce/xfwm4
xfce/xfdesktop
xfce/xfce4-appfinder
xfce/xfce4-power-manager
xfce/thunar-volman




##
## Extra packages for XFCE4
########################################
xfce1/xfce4-notifyd
xfce1/xfce4-icon-theme
xfce1/thunar-archive-plugin
xfce1/xfce4-battery-plugin
xfce1/xfce4-clipman-plugin
xfce1/xfce4-cpufreq-plugin
xfce1/xfce4-datetime-plugin
xfce1/xfce4-mailwatch-plugin
xfce1/xfce4-netload-plugin
xfce1/xfce4-notes-plugin
xfce1/xfce4-pulseaudio-plugin
xfce1/xfce4-screenshooter
xfce1/xfce4-systemload-plugin
xfce1/xfce4-taskmanager
xfce1/xfce4-xkb-plugin
xfce1/xfce4-weather-plugin
xfce1/xfce4-whiskermenu-plugin
xfcedeps/vte
xfce1/xfce4-terminal
xfcedeps/libburn
xfcedeps/libisofs
xfce1/xfburn
xfce1/orage
xfce1/parole
##</XFCE1>##




##
## Extra multimedia applications
########################################
ap1/emovix
##
## mkvtoolnix >= 20.0 requires
## libmatroska, libogg and cmark
########################################
l1/cmark
xap1/mkvtoolnix
xap1/mpgtx
xap1/vcdimager
xap/audacious
xap/audacious-plugins
xap/xine-lib
xap/xine-ui
xap/xine-skins
xap/xmms
#xap1/audacity
##
## Optional for KStars
########################################
xap1/xplanet
##
## enblend-enfuse and hugin are required
## for digiKams enblend GUI and optional
## for luminance (HDR tool)
## Build requires libxmi,libpano13,vigra
## and wxGTK with opengl enabled
########################################
lgfx1/vigra
xap1/enblend-enfuse
ap1/autopano-sift-c
xap1/hugin



##
## NetworkManager is optional for KDE
########################################
nm/mobile-broadband-provider-info
nm/libmbim
nm/libqmi
nm/ModemManager
nm/libndp
nm/NetworkManager




##<XKDE1>##
##<XKDEP>##
##
## Required for cryfs/clementine
########################################
k5deps/cryptopp
##
## KDE5 dependencies
########################################
k5deps/xapian-core
k5deps/grantlee5
k5deps/eigen3
k5deps/lmdb
##
## Required for prison
########################################
k5deps/libdmtx
k5deps/qrencode
##
## Required for breeze-gtk
########################################
k5deps/libsass
k5deps/sassc
##
## Required for kwayland-server
########################################
k5deps/plasma-wayland-protocols
##
## Required for kio-extras
########################################
k5deps/kdsoap
##</XKDEP>##




##<XKFRAMEWORKS>##
##
## KDE frameworks
########################################
k5frameworks/oxygen-icons
k5frameworks/breeze-icons
k5frameworks/kwayland
k5frameworks/attica5
k5frameworks/kapidox
k5frameworks/karchive
k5frameworks/kcodecs
k5frameworks/kconfig
k5frameworks/kcoreaddons
k5frameworks/kdbusaddons
k5frameworks/kdnssd
k5frameworks/kguiaddons
k5frameworks/ki18n
k5frameworks/kidletime
k5frameworks/kimageformats
k5frameworks/kitemmodels
k5frameworks/kitemviews
k5frameworks/kplotting
k5frameworks/kwidgetsaddons
k5frameworks/kwindowsystem
k5frameworks/bluez-qt
k5frameworks/modemmanager-qt
k5frameworks/networkmanager-qt
k5frameworks/solid
k5frameworks/sonnet
k5frameworks/threadweaver
k5frameworks/kauth
k5frameworks/kcompletion
k5frameworks/kcrash
k5frameworks/kdoctools
k5frameworks/kpty
k5frameworks/kunitconversion
k5frameworks/kconfigwidgets
k5frameworks/kservice
k5frameworks/kglobalaccel
k5frameworks/kpackage
k5frameworks/kdesu
k5frameworks/kemoticons
k5frameworks/kiconthemes
k5frameworks/kjobwidgets
k5frameworks/knotifications
k5frameworks/ktextwidgets
k5frameworks/kwallet
k5frameworks/kxmlgui
k5frameworks/kbookmarks
k5frameworks/kio
k5frameworks/knewstuff
k5frameworks/frameworkintegration
k5frameworks/kdeclarative
k5frameworks/kcmutils
k5frameworks/kinit
k5frameworks/knotifyconfig
k5frameworks/kparts
k5frameworks/kactivities
k5frameworks/kactivities-stats
k5frameworks/kded
k5frameworks/syntax-highlighting
k5frameworks/ktexteditor
k5frameworks/kpeople
k5frameworks/kirigami2
k5frameworks/plasma-framework
k5frameworks/kfilemetadata
k5frameworks/baloo
k5frameworks/krunner
k5frameworks/prison
k5frameworks/qqc2-desktop-style
k5frameworks/kholidays
k5frameworks/purpose
k5frameworks/kcalendarcore
k5frameworks/kcontacts
k5frameworks/syndication
k5frameworks/kquickcharts
k5frameworks/kdav

##
## KDE porting aids
########################################
k5port/kxmlrpcclient
k5port/kjs
k5port/kdesignerplugin
k5port/kdelibs4support
k5port/khtml
k5port/kjsembed
k5port/kmediaplayer
k5port/kross
k5port/kdewebkit
##</XKFRAMEWORKS>##




##<XKPLASMA>##
##
## KDE5 plasma desktop
########################################
k5plasma/libkscreen
k5plasma/libksysguard
k5plasma/bluedevil
k5plasma/polkit-kde-agent-1
k5plasma/kwallet-pam
k5plasma/ksshaskpass
k5plasma/kdecoration
k5plasma/kde-gtk-config
k5plasma/milou
k5plasma/oxygen
k5plasma/breeze
k5plasma/breeze-gtk
k5plasma/kactivitymanagerd
k5plasma/kscreenlocker
k5plasma/kscreen
k5plasma/kwrited
k5plasma/kgamma
k5plasma/ksysguard
k5plasma/kinfocenter
k5plasma/kwayland-integration
k5plasma/kwayland-server
k5plasma/kwin
k5plasma/plasma-integration
k5plasma/plasma-workspace
k5plasma/plasma-nm
k5plasma/kde-cli-tools
k5plasma/systemsettings
k5plasma/kdeplasma-addons
k5plasma/khotkeys
k5plasma/kmenuedit
k5plasma/plasma-desktop
k5plasma/plasma-pa
k5plasma/plasma-sdk
k5plasma/plasma-workspace-wallpapers
k5plasma/plasma-browser-integration
k5plasma/powerdevil
k5plasma/drkonqi
k5plasma/sddm-kcm
##
## Plasma encrypted vault support
########################################
k5deps/cryfs
k5deps/encfs
k5plasma/plasma-vault
##
## Plasma user management
## Experimental, use at own risk
########################################
k5deps/cracklib
k5deps/libpwquality
k5deps/accountsservice
k5plasma/user-manager
##</XKPLASMA>##




##<XKAPP1>##
##
## KDE5 desktop applications
########################################

##
## KDE5 core packages
########################################
k5apps-core/kdegraphics-mobipocket
k5apps-core/grantleetheme

##
## PIM information storage service
## used by various KDE applications
########################################
k5apps-pim/kmime
k5apps-pim/kmbox
k5apps-pim/kldap
k5apps-pim/kimap
k5apps-pim/akonadi

##
## KDE5 libraries and bindings
########################################
k5apps-core/libkdcraw
k5apps-core/libkeduvocdocument
k5apps-core/libkexiv2
k5apps-core/libkipi
k5apps-core/libksane
k5apps-core/svgpart
k5apps-core/marble
k5apps-core/libkgeomap

##
## KDE5 base apps and packages
########################################
k5apps-base/kdialog
k5apps-base/keditbookmarks
k5apps-base/kfind
k5apps-base/konqueror
k5apps-base/khelpcenter
k5apps-base/konsole
k5apps-base/kate
k5apps-base/baloo-widgets
k5apps-base/dolphin
k5apps-base/okular
k5apps-base/kio-extras
k5apps-dev/kdebugsettings

##
## KDE5 graphic packages
########################################
k5apps-gfx/gwenview
k5apps-gfx/kamera
k5apps-gfx/kcolorchooser
k5apps-gfx/kolourpaint
k5apps-gfx/kruler
k5apps-gfx/spectacle
k5apps-gfx/kdegraphics-thumbnailers
k5apps-gfx/kipi-plugins

##
## KDE5 educational packages
########################################
k5apps-edu/artikulate
k5apps-edu/blinken
k5apps-edu/analitza
k5apps-edu/kalgebra
k5apps-edu/cantor
k5apps-edu/kalzium
k5apps-edu/kanagram
k5apps-edu/kbruch
k5apps-edu/kgeography
k5apps-edu/khangman
k5apps-edu/kig
k5apps-edu/kiten
k5apps-edu/klettres
k5apps-edu/kmplot
k5apps-edu/kqtquickcharts
k5apps-edu/ktouch
k5apps-edu/kturtle
k5apps-edu/kwordquiz
k5apps-edu/parley
k5apps-edu/rocs
k5apps-edu/step
k5apps-edu/kdeedu-data

##
## KDE5 core PIM applications
########################################
##<XKPIM1>##
k5apps-pim/akonadi-mime
k5apps-pim/akonadi-contacts
##</XKPIM1>##

##
## KDE5 utility packages
########################################
k5apps-utils/ark
k5apps-utils/filelight
k5apps-utils/kbackup
k5apps-utils/kcharselect
k5apps-utils/kcalc
k5apps-utils/kdf
k5apps-utils/kfloppy
k5apps-utils/kgpg
k5apps-utils/ktimer
k5apps-utils/kwalletmanager
k5apps-utils/sweeper
k5apps-utils/yakuake

##
## KDE5 multimedia packages
########################################
k5apps-media/libkcddb
k5apps-media/libkcompactdisc
k5apps-media/audiocd-kio
k5apps-media/dragon
k5apps-media/ffmpegthumbs
k5apps-media/juk
k5apps-media/kmix
k5apps-media/kamoso
k5apps-media/kwave
k5apps-media/k3b
k5deps-apps/mlt
k5apps-media/kdenlive
k5apps-media/elisa

##
## KDE5 network packages
########################################
k5apps-net/kdenetwork-filesharing
k5apps-net/zeroconf-ioslave
k5apps-net/krdc
k5apps-net/krfb
k5apps-net/kdeconnect-kde

##
## KDE5 admin packages
########################################
k5apps-admin/ksystemlog
k5apps-admin/kcron
k5apps-admin/print-manager

##
## KDE5 toys packages
########################################
k5apps-toys/kteatime

##
## KDE5 development packages
########################################
k5apps-dev/cervisia
k5apps-dev/dolphin-plugins
k5apps-dev/kapptemplate
k5apps-dev/kcachegrind
k5apps-dev/kde-dev-scripts
k5apps-dev/kde-dev-utils
k5apps-dev/kdesdk-kioslaves
k5apps-dev/kdesdk-thumbnailers
k5apps-dev/libkomparediff2
k5apps-dev/kompare
k5apps-dev/lokalize
k5apps-dev/poxml
k5apps-dev/umbrello
k5apps-dev/kimagemapeditor

##
## KDE5 games packages
########################################
k5apps-games/libkdegames
k5apps-games/libkmahjongg
k5apps-games/kmahjongg
k5apps-games/bomber
k5apps-games/bovo
k5apps-games/granatier
k5apps-games/kapman
k5apps-games/katomic
k5apps-games/kblackbox
k5apps-games/kblocks
k5apps-games/kbounce
k5apps-games/kbreakout
k5apps-games/kdiamond
k5apps-games/kfourinline
k5apps-games/killbots
k5apps-games/kiriki
k5apps-games/kjumpingcube
k5apps-games/klickety
k5apps-games/klines
k5apps-games/kmines
k5apps-games/knavalbattle
k5apps-games/knetwalk
k5apps-games/kollision
k5apps-games/kshisen
k5apps-games/ksquares
k5apps-games/ktuberling
k5apps-games/picmi
k5apps-games/kgoldrunner
k5apps-games/kigo
k5apps-games/konquest
k5apps-games/kreversi
k5apps-games/ksnakeduel
k5apps-games/kspaceduel
k5apps-games/ksudoku
k5apps-games/kubrick
k5apps-games/lskat
k5apps-games/kolf
k5apps-games/ksirk
k5apps-games/palapeli
k5apps-games/knights

##
## KDE5 accessibility packages
########################################
k5apps-a11y/kmag
k5apps-a11y/kmouth
k5apps-a11y/kmousetool

##
## KDE5 network packages
########################################
k5apps-net/kget




##<XKPIM2>##
##
## KDE PIM applications
########################################
k5apps-pim/libkgapi
k5apps-pim/akonadi-notes
k5apps-pim/kpimtextedit
k5apps-pim/libkleo
k5apps-pim/kleopatra
k5apps-pim/kontactinterface
k5apps-pim/kidentitymanagement
k5apps-pim/kcalutils
k5apps-pim/kalarmcal
k5apps-pim/ksmtp
k5apps-pim/kmailtransport
k5apps-pim/ktnef
k5apps-pim/kblog
k5apps-pim/akonadi-calendar
k5apps-pim/akonadi-search
k5apps-pim/libkdepim
k5apps-pim/pimcommon
k5apps-pim/kdepim-runtime
k5apps-pim/kdepim-apps-libs
k5apps-pim/libgravatar
k5apps-pim/mailimporter
k5apps-pim/calendarsupport
k5deps-apps/kdiagram
k5apps-pim/eventviews
k5apps-pim/incidenceeditor
k5apps-pim/messagelib
k5apps-pim/mailcommon
k5apps-pim/libksieve
k5apps-pim/kpkpass
k5apps-pim/kitinerary
k5apps-pim/kdepim-addons
k5apps-pim/akonadi-calendar-tools
k5apps-pim/akonadiconsole
k5apps-pim/akonadi-import-wizard
k5apps-pim/akregator
k5apps-pim/grantlee-editor
k5apps-pim/kaddressbook
k5apps-pim/kalarm
k5apps-pim/kmail
k5apps-pim/kmail-account-wizard
k5apps-pim/knotes
k5apps-pim/kontact
k5apps-pim/korganizer
k5apps-pim/mbox-importer
k5apps-pim/pim-data-exporter
k5apps-pim/pim-sieve-editor
##</XKPIM2>##
##</XKAPP1>##




##<XKAPP2>##
##
## KDE applications allready ported
## to KDE Frameworks 5
########################################
kapps1/plasma-applet-thermal-monitor
kapps1/kid3

kapps1/kpmcore
kapps1/partitionmanager

##
## digikam might depend on various
## api unstabble libraries
########################################
kapps1/digikam
#kapps1/digikam-git

kapps1/sqlcipher
kapps1/skrooge

kapps1/kstars
kapps1/okteta
##
## A CDDA ripper for KDE5
########################################
kapps1/audex
##</XKAPP2>##
##</XKDE1>##




##
## Create video thumbnails
########################################
xap/ffmpegthumbnailer
##<XFCE2>##
xfce/tumbler
##</XFCE2>##




##
## Some more multimedia applications
########################################
##
## MPlayer
########################################
#xap/MPlayer
#xap/MPlayer-skins
##
########################################




##
## Extra applications
########################################
#ap/cups-filters
ap/pamixer
xap/network-manager-applet
ap1/xa
ap1/dxa
ap1/system-power-utils
xap1/gcalctool
xap1/galculator
xap1/slurm
xap1/geany
xap1/diffuse
xap1/gsmartcontrol
xap1/gnome-media
xap1/gtk-chtheme
#xap1/bleachbit




##
## Various icon themes...
########################################
themes/adwaita-icon-theme
themes/gnome-icon-theme
themes/gnome-icon-theme-extras
themes/gnome-icon-theme-symbolic
themes/gnome-icon-theme-xfce
themes/tango-icon-theme
themes/tango-icon-theme-extras
themes/elementary-xfce

##
## Various GTK+ themes...
########################################
themes/Blackbird




##
## This package replaces the original
## Slackware package and will set joe
## as the default editor
########################################
ap/joe




##
## Graphics applications
########################################
##
## GIMP >= 2.8 requires babl and gegl
########################################
lgfx/babl
lgfx/gegl
##
## GIMP >= 2.10 requires gexiv2, json-c
## libmypaint and mypaint-brushes
########################################
lgnome/gexiv2
lgfx/libmypaint
lgfx/mypaint-brushes
xap/gimp
## GMic provides a command-line tool and
## a plugin for GIMP for extra effects
########################################
#xap1/gmic
##
##
## Some extra scripts and plugins
########################################
#xap1/gimp-plugins-fix-ca
#xap1/gimp-plugins-wideangle
xap1/gimp-plugins-lensfun
#xap1/gimp-plugins-wavelet-denoise
##
## Sane can make use of Gimp >= 2.x
########################################
xap/sane-frontends
xap/xsane
ap/gphoto2
xap1/inkscape
xap/geeqie
##
## osm-gps-map required for dt > 1.6
########################################
l1/osm-gps-map
xap1/darktable
#xap1/darktable-git
#xap1/rawtherapee
#xap1/rawtherapee-git




##
## Printing stuff
########################################
##
## mtink and libinklevel need usblp
## kernel module to be loaded
########################################
xap1/mtink
l1/libinklevel
ap1/ink




##
## Extra applications for X
########################################
#xap/gftp
xap1/leafpad
xap1/xarchiver
xap1/grandr
xap1/vice
#xap1/vice31

##
## X11 display manager for GTK+
########################################
xap1/lxdm




##<XQT5>##
##
## Extra applications for X/Qt5
########################################
xqt5/luminance
xqt5/qjackctl
xqt5/qt5ct
xqt5/qpdfview
xqt5/vlc
#xqt5/vlc-git
xqt5/obs-studio
xqt5/ssr
#xqt5/avidemux
xqt5/avidemux-git
ap1/rdiff-backup
xqt5/luckybackup
##
## HP printing stuff...
## Build with QT5-support since Qt4
## is deprecated
########################################
lpython/python-pillow
lpython/python-sane
ap/hplip
##
## X11 display manager for Qt5
########################################
xqt5/sddm
##</XQT5>##




##<XKDE2>##
##
## Backends for phonon sound system
########################################
k5deps/phonon-gstreamer
k5deps/phonon-vlc
##</XKDE2>##

##<XKDE3>##
##<XKAPP3>##
##
## Clementine is cheking for libvlc and
## requires protobuf/libechonest
########################################
k5deps-apps/gmock
k5deps-apps/protobuf
k5deps-apps/libechonest
kapps1/clementine
##</XKAPP3>##
##</XKDE3>##




##
## Extra Games
########################################
xgames/toppler
xgames/ppracer
##
## neverball/supertux requires physfs
########################################
l1/physfs
xgames/neverball
xgames/supertux
xgames/supertuxkart
xgames/armagetronad




##
## Extra applications build from
## binary releases
########################################




##
## Extra localized packages build from
## binary releases. 32Bit
##
## When using the buildsystem you will get
## asked which language to use, so no need
## to change anything here
########################################
xbin32/vivaldi
xbin32/mozilla-firefox
xbin32/mozilla-firefox_de
xbin32/mozilla-thunderbird
xbin32/mozilla-thunderbird_de
xbin32/libreoffice
xbin32/libreoffice-l10n_de
xbin32/libreoffice-help
xbin32/libreoffice-help_de




##
## Extra localized packages build from
## binary releases. 64Bit
##
## When using the buildsystem you will get
## asked which language to use, so no need
## to change anything here
########################################
xbin64/vivaldi_x64
xbin64/mozilla-firefox_x64
xbin64/mozilla-firefox_x64_de
xbin64/mozilla-thunderbird_x64
xbin64/mozilla-thunderbird_x64_de
xbin64/libreoffice_x64
xbin64/libreoffice-l10n_x64_de
xbin64/libreoffice-help_x64
xbin64/libreoffice-help_x64_de




##
## The Really Slick Screensavers for
## XScreenSaver...
## Currently broken on 14.2+ due to
## enabled HDRI support on ImageMagick
########################################
#xap1/rss-glx




##
## Handy stuff for tablets/ultrabooks
########################################
##
## A generic touchscreen
## calibration tool for X.Org
## Can use GTKMM for the GUI
########################################
xorg1/xinput_calibrator
##
## Auto-rotate screen for latops and
## ultrabooks. You need to modify your
## ~/.xprofile script to make us of it
########################################
#xorg1/xautorotate




###############################################################################
### Additional packages not covered by groups
###############################################################################
#PRIVATE/nameofpackage
