Alacarte (menu editor for GNOME)

Alacarte is a menu editor for GNOME using the
freedesktop.org menu specification.



======================================================================
Suggested packages by RequiredBuilder:
(Note: This list may not match the real dependencies!)
======================================================================
python >= 2.6.4-i486-1
