aspell (german aspell dictionary)

GNU Aspell 0.60 German (Deutsches) Dictionary Package



======================================================================
Suggested/required packages:
(Note: This list may not match the real dependencies!)
======================================================================
(No dependicies found)
