avahi (zeroconf implementation)

Avahi is a free, LGPL mDNS/DNS-SD implementation.



======================================================================
Suggested/required packages:
(Note: This list may not match the real dependencies!)
======================================================================
atk
cairo
dbus
expat
gdbm
gdk-pixbuf2
glib2
glibc-solibs
gtk+3
libcap
libdaemon
pango
zlib
