awoken-icon-theme (the AwOken icon theme)

This is the Awoken icon theme.

For more details see:
http://alecive.deviantart.com/art/AwOken-163570862



======================================================================
Suggested/required packages:
(Note: This list may not match the real dependencies!)
======================================================================
(No dependicies found)
