blender (3D content creation suite)

Blender is an open source software for 3D modeling, animation,
rendering, post-production, interactive creation and playback.

This package requires Python 2.4.



======================================================================
Suggested packages by RequiredBuilder:
(Note: This list may not match the real dependencies!)
======================================================================
(No dependicies found by RequiredBuilder)
