compiz-bcop (Compiz option code generator)

Bcop is used to autogenerate code for working with options in compiz
plugins.



======================================================================
Suggested packages by RequiredBuilder:
(Note: This list may not match the real dependencies!)
======================================================================
(No dependicies found by RequiredBuilder)
