cryptopp (a C++ Class Library of Cryptographic Schemes)

Crypto++ is a free C++ class library of cryptographic schemes.



======================================================================
Suggested/required packages:
(Note: This list may not match the real dependencies!)
======================================================================
gcc
gcc-g++
glibc-solibs
