dbus-glib-sharp (GLib integration for dbus-sharp)

GLib integration for NDesk.DBus, the D-Bus IPC library.



======================================================================
Suggested packages by RequiredBuilder:
(Note: This list may not match the real dependencies!)
======================================================================
(No dependicies found by RequiredBuilder)
