dbus-sharp (Mono implementation of D-Bus)

nesk-dbus is a C# implementation of D-Bus. It's often referred to as
dbus-sharp, or "managed D-Bus" to avoid confusion with existing
bindings (which wrap libdbus).



======================================================================
Suggested packages by RequiredBuilder:
(Note: This list may not match the real dependencies!)
======================================================================
(No dependicies found by RequiredBuilder)
