enca (a charset analyzer)

Enca is a Extremely Native Charset Analyzer. It detects character
set and encoding of text files and can also convert them to other
encodings.



======================================================================
Suggested packages by RequiredBuilder:
(Note: This list may not match the real dependencies!)
======================================================================
glibc-solibs >= 2.11.1-i486-3
