font-arabic-misc (Arabic fonts of the Mexico State University)

Arabic fonts of the Mexico State University.

font-arabic-misc is part of X.org. Home: http://www.x.org



======================================================================
Suggested/required packages:
(Note: This list may not match the real dependencies!)
======================================================================
(No dependicies found)
