font-bh-type1 (X.Org BH Type1 fonts)

X.Org Bigelow and Holmes Type1 fonts.

font-bh-type1 is part of X.org. Home: http://www.x.org



======================================================================
Suggested/required packages:
(Note: This list may not match the real dependencies!)
======================================================================
(No dependicies found)
