font-bitstream-type1 (Bitstream font family)

Bitstream font family.

font-bitstream-type1 is part of X.org. Home: http://www.x.org



======================================================================
Suggested/required packages:
(Note: This list may not match the real dependencies!)
======================================================================
(No dependicies found)
