font-jis-misc (The Japanese Industrial Standard, JIS, font)

The Japanese Industrial Standard, JIS, font.

font-jis-misc is part of X.org. Home: http://www.x.org



======================================================================
Suggested/required packages:
(Note: This list may not match the real dependencies!)
======================================================================
(No dependicies found)
