font-bh-100dpi (X.Org BH bitmaps 100dpi fonts)

X.Org Bigelow and Holmes bitmaps 100dpi fonts.

font-bh-100dpi is part of X.org. Home: http://www.x.org



======================================================================
Suggested/required packages:
(Note: This list may not match the real dependencies!)
======================================================================
(No dependicies found)
