gnome-backgrounds (Various desktop backgrounds for GNOME)

This module contains a set of backgrounds packaged with the
GNOME desktop.



======================================================================
Suggested packages by RequiredBuilder:
(Note: This list may not match the real dependencies!)
======================================================================
(No dependicies found by RequiredBuilder)
