gtk-doc (generate API reference documentation)

gtk-doc is a tool for generating API reference documentation.
It is used for generating the documenation for GTK+, Glib
and GNOME.



======================================================================
Suggested packages by RequiredBuilder:
(Note: This list may not match the real dependencies!)
======================================================================
perl >= 5.10.0-i486-1
python >= 2.6.2-i486-3
