hal-info (device infomation for HAL)

hal-info contains device information for HAL.

See http://www.freedesktop.org/Software/hal for lots of
documentation, mailing lists, etc.



======================================================================
Suggested packages by RequiredBuilder:
(Note: This list may not match the real dependencies!)
======================================================================
(No dependicies found by RequiredBuilder)
