harfbuzz (a text shaping library)

This is HarfBuzz, a text shaping library.



======================================================================
Suggested/required packages:
(Note: This list may not match the real dependencies!)
======================================================================
cairo
freetype
gcc
gcc-g++
glib2
glibc-solibs
graphite2
icu4c
