kblog (a blogging library for KDE)

This package is part of the KDE applications collection.

kblog is a blogging library for KDE.



======================================================================
Suggested/required packages:
(Note: This list may not match the real dependencies!)
======================================================================
gcc
gcc-g++
glibc-solibs
kcalendarcore
kconfig
kcoreaddons
ki18n
kio
kservice
kxmlrpcclient
qt5-base
syndication
