kde-l10n (Language support for KDE)

Language support for KDE.



======================================================================
Suggested packages by RequiredBuilder:
(Note: This list may not match the real dependencies!)
======================================================================
(No dependicies found by RequiredBuilder)
