kdeedu-data (data files for KDE education applications)

This package is part of the KDE applications collection.

KDEEdu-Data contains data files for KDE education applications.



======================================================================
Suggested/required packages:
(Note: This list may not match the real dependencies!)
======================================================================
(No dependicies found)
