kf5-grantleetheme (grantlee theme support)

This package is part of the KDE applications collection.

This library provides grantlee theme support.



======================================================================
Suggested/required packages:
(Note: This list may not match the real dependencies!)
======================================================================
gcc >= 5.3.0-x86_64-3
gcc-g++ >= 5.3.0-x86_64-3
glibc-solibs >= 2.23-x86_64-1
grantlee5 >= 5.0.0-x86_64-1slp
kf5-attica >= 5.24.0-x86_64-1slp
kf5-kauth >= 5.24.0-x86_64-1slp
kf5-kcodecs >= 5.24.0-x86_64-1slp
kf5-kconfig >= 5.24.0-x86_64-1slp
kf5-kconfigwidgets >= 5.24.0-x86_64-1slp
kf5-kcoreaddons >= 5.24.0-x86_64-1slp
kf5-ki18n >= 5.24.0-x86_64-1slp
kf5-kiconthemes >= 5.24.0-x86_64-1slp
kf5-knewstuff >= 5.24.0-x86_64-1slp
kf5-kservice >= 5.24.0-x86_64-1slp
kf5-kwidgetsaddons >= 5.24.0-x86_64-1slp
kf5-kxmlgui >= 5.24.0-x86_64-1slp
qt5-base >= 5.7.0-x86_64-1slp
