kf5-plasma-workspace-wallpapers (wallpapers for the desktop)

This package is part of the KDE Plasma 5 desktop series.

Plasma-Workspace-Wallpapers contains additional wallpapers
for the KDE Plasma 5 desktop. 



======================================================================
Suggested/required packages:
(Note: This list may not match the real dependencies!)
======================================================================
(No dependicies found)
