kf5-kapidox (API documentation generation tool for KDE frameworks)

This package is part of the KDE Frameworks 5 series.

kapidox contains scripts and data for building API documentation
in a standard format and style.



======================================================================
Suggested/required packages:
(Note: This list may not match the real dependencies!)
======================================================================
(No dependicies found)
