kf5-kde-base-artwork (base artwork for the KDE Workspace)

This package is part of the KDE applications collection.

KDEBaseArtwork contain base artwork for the KDE Workspace
like a default splash-screen theme.



======================================================================
Suggested packages by RequiredBuilder:
(Note: This list may not match the real dependencies!)
======================================================================
(No dependicies found by RequiredBuilder)
