kirigami (QtQuick plugins to build KDE user interfaces)

QtQuick plugins to build user interfaces based on
the KDE UX guidelines



======================================================================
Suggested/required packages:
(Note: This list may not match the real dependencies!)
======================================================================
gcc
gcc-g++
glibc-solibs
qt5-base
qt5-declarative
qt5-quickcontrols2
