kjsembed (Embedded JS library for Qt)

This package is part of the KDE Frameworks 5 porting aids series.

The KJsEmbed package contains a library that provides a method of
binding JavaScript objects to QObjects. 



======================================================================
Suggested/required packages:
(Note: This list may not match the real dependencies!)
======================================================================
gcc
gcc-g++
glibc-solibs
ki18n
kjs
libglvnd
qt5-base
qt5-svg
