koffice2-l10n (Language support for KOffice2)

Language support for KOffice2.



======================================================================
Suggested packages by RequiredBuilder:
(Note: This list may not match the real dependencies!)
======================================================================
(No dependicies found by RequiredBuilder)
