libmikmod (a portable sound library for Unix)

This is libmikmod, a portable sound library for Unix and other
systems. Check out the file 'NEWS' for more history information.



======================================================================
Suggested/required packages:
(Note: This list may not match the real dependencies!)
======================================================================
glibc-solibs
pulseaudio
