


======================================================================
Suggested/required packages:
(Note: This list may not match the real dependencies!)
======================================================================
(No dependicies found)
