libsamplerate (perfrom sample rate conversion of audio data)

libsamplerate (also known as Secret Rabbit Code) is a library for
perfroming sample rate conversion of audio data.

This is a library dependancy for Sweep.



======================================================================
Suggested packages by RequiredBuilder:
(Note: This list may not match the real dependencies!)
======================================================================
flac >= 1.2.1-i486-1slp
glibc-solibs >= 2.9-i486-3
libogg >= 1.1.4-i486-1slp
libsndfile >= 1.0.21-i486-1slp
libvorbis >= 1.2.3-i486-1slp
