libXp (X Print Library)

X Print Library.

libXp is part of X.org. Home: http://www.x.org



======================================================================
Suggested/required packages:
(Note: This list may not match the real dependencies!)
======================================================================
glibc-solibs
libX11
libXau
libXext
