network-manager-applet (NetworkManager Applet)

nm-applet is a gui frontend for NetworkManager.



======================================================================
Suggested/required packages:
(Note: This list may not match the real dependencies!)
======================================================================
ModemManager
NetworkManager
atk
cairo
gdk-pixbuf2
glib2
glibc-solibs
gtk+3
libnma
libnotify
libsecret
pango
