openal (a cross platform 3D audio API)

OpenAL is a cross platform 3D audio API.



======================================================================
Suggested/required packages:
(Note: This list may not match the real dependencies!)
======================================================================
gcc
gcc-g++
glibc-solibs
qt5-base
