perl-Gtk+2-Ex-FormFactory (Makes building complex GUI's easy)

This is a framework which tries to make building complex GUI's easy.



======================================================================
Suggested/required packages:
(Note: This list may not match the real dependencies!)
======================================================================
(No dependicies found)
