XML::Simple (API to read/write XML)

An easy API to read/write XML (especially config files)



======================================================================
Suggested packages by RequiredBuilder:
(Note: This list may not match the real dependencies!)
======================================================================
perl >= 5.8.8-i486-6
