HTML::Tagset (Data tables to deal with HTML)

This module contains data tables useful in dealing with HTML.
It provides no functions or methods.



======================================================================
Suggested/required packages:
(Note: This list may not match the real dependencies!)
======================================================================
(No dependicies found)
