perl-Event-ExecFlow (an API for event based execution flow control)

Event::ExecFlow provides a high level API for defining complex flow
controls with asynchronous execution of external programs.



======================================================================
Suggested/required packages:
(Note: This list may not match the real dependencies!)
======================================================================
(No dependicies found)
