phonon-qt5 (Phonon library needed to compile QT5 applications)

Phonon library needed to compile applications for QT5.



======================================================================
Suggested/required packages:
(Note: This list may not match the real dependencies!)
======================================================================
gcc
gcc-g++
glibc-solibs
pulseaudio
qt5-base
qt5-tools
