plasma-wayland-protocols (Plasma specific protocols for Wayland)

Plasma specific protocols for Wayland.



======================================================================
Suggested/required packages:
(Note: This list may not match the real dependencies!)
======================================================================
(No dependicies found)
