pugixml (Light-weight, simple and fast XML parser for C++)

pugixml is a light-weight C++ XML processing library.



======================================================================
Suggested/required packages:
(Note: This list may not match the real dependencies!)
======================================================================
gcc
gcc-g++
glibc-solibs
