python-sane (Python bindings to SANE scanner interface)

The SANE module provides an interface to the SANE scanner and frame
grabber interface for Linux.



======================================================================
Suggested/required packages:
(Note: This list may not match the real dependencies!)
======================================================================
glibc-solibs
sane-backends
