rstart (Part of the X.Org X server)

rstart is part of X11.

For more information about the X.Org Foundation (the providers of the
X.Org implementation of the X Window System), see their website:

http://www.x.org



======================================================================
Suggested packages by RequiredBuilder:
(Note: This list may not match the real dependencies!)
======================================================================
(No dependicies found by RequiredBuilder)
