sound-theme-freedesktop (sound theme for the GNOME desktop)

A sound theme for the GNOME desktop.



======================================================================
Suggested packages by RequiredBuilder:
(Note: This list may not match the real dependencies!)
======================================================================
(No dependicies found by RequiredBuilder)
