sqlite (An Embeddable SQL Database Engine)

An Embeddable SQL Database Engine

Homepage: http://www.sqlite.org



======================================================================
Suggested/required packages:
(Note: This list may not match the real dependencies!)
======================================================================
glibc-solibs
icu4c
libedit
zlib
