synaptiks (a touchpad management service for KDE)

Synaptiks is a touchpad management service for KDE. It provides a
simple configuration interface and can automatically switch off your
touchpad on keyboard activity or if mouse devices are plugged.



======================================================================
Suggested/required packages:
(Note: This list may not match the real dependencies!)
======================================================================
(No dependicies found)
