twm (Tab Window Manager for the X Window System)

Tab Window Manager for the X Window System.

twm is part of X.org. Home: http://www.x.org



======================================================================
Suggested/required packages:
(Note: This list may not match the real dependencies!)
======================================================================
glibc-solibs
libICE
libSM
libX11
libXext
libXmu
libXrandr
libXt
