urw-core35-fonts-ttf (URW++ Core Font Set in TrueType format)

These are the 35 standard URW++ PostScript fonts used by GhostScript
but provided in TrueType format for programs such as Libreoffice
which no longer support the PostScript Type1 fonts.



======================================================================
Suggested/required packages:
(Note: This list may not match the real dependencies!)
======================================================================
(No dependicies found)
