xfce4-icon-theme (Icons for Xfce)

Icon theme for Xfce 4 Desktop Environment.



======================================================================
Suggested/required packages:
(Note: This list may not match the real dependencies!)
======================================================================
(No dependicies found)
