xmltoman (convert xml files into man pages)

xmltoman and xmlmantohtml are two very simple scripts for converting
xml to groff or html.



======================================================================
Suggested/required packages:
(Note: This list may not match the real dependencies!)
======================================================================
(No dependicies found)
