xproxymanagementprotocol (Part of the X.Org X server)

xproxymanagementprotocol is part of X11.

For more information about the X.Org Foundation (the providers of the
X.Org implementation of the X Window System), see their website:

http://www.x.org



======================================================================
Suggested/required packages:
(Note: This list may not match the real dependencies!)
======================================================================
(No dependicies found)
